Package                   Version
------------------------- --------------
absl-py                   0.9.0
appdirs                   1.4.4
asn1crypto                0.24.0
astor                     0.8.1
astroid                   1.6.0
attrs                     19.3.0
audioread                 2.1.8
autopep8                  1.5.2
awscli                    1.14.44
backcall                  0.1.0
bleach                    3.1.1
botocore                  1.8.48
certifi                   2018.1.18
cffi                      1.14.0
chardet                   3.0.4
cloudpickle               1.3.0
colorama                  0.3.7
cryptography              2.1.4
cupy                      7.2.0
cycler                    0.10.0
Cython                    0.29.15
decorator                 4.4.2
defusedxml                0.6.0
distlib                   0.3.0
docutils                  0.14
entrypoints               0.3
fastrlock                 0.4
filelock                  3.0.12
flake8                    3.5.0
future                    0.18.2
gast                      0.2.2
gluoncv                   0.7.0
google-pasta              0.2.0
graphsurgeon              0.4.1
graphviz                  0.8.4
grpcio                    1.27.2
h5py                      2.10.0
horovod                   0.19.0
idna                      2.6
imageio                   2.8.0
importlib-metadata        1.5.0
importlib-resources       1.5.0
ipykernel                 5.1.4
ipython                   7.13.0
ipython-genutils          0.2.0
ipywidgets                7.5.1
isort                     4.3.4
jedi                      0.16.0
Jinja2                    2.11.1
jmespath                  0.9.3
joblib                    0.14.0
json5                     0.9.2
jsonschema                3.2.0
jupyter                   1.0.0
jupyter-client            6.0.0
jupyter-console           6.1.0
jupyter-core              4.6.3
jupyter-tensorboard       0.1.10
jupyterlab                1.2.2
jupyterlab-server         1.0.7
jupytext                  1.3.4
Keras                     2.3.1
Keras-Applications        1.0.8
Keras-Preprocessing       1.0.5
keyring                   10.6.0
keyrings.alt              3.0
kiwisolver                1.1.0
lazy-object-proxy         1.3.1
librosa                   0.7.1
llvmlite                  0.32.1
logilab-common            1.4.1
Markdown                  3.2.1
MarkupSafe                1.1.1
matplotlib                3.1.1
mccabe                    0.6.1
mistune                   0.8.4
mock                      3.0.5
mpi4py                    3.0.3
mxnet                     1.6.0
mxnet-cu100               1.6.0b20191102
mxnet-cu100mkl            1.6.0b20191013
mxnet-cu102               1.6.0
mxnet-cu102mkl            1.6.0
nbconvert                 5.6.1
nbformat                  5.0.4
networkx                  2.4
nltk                      3.2.5
notebook                  6.0.2
numba                     0.49.1
numba-scipy               0.2.0
numba-special             0.2.0
numpy                     1.18.5
nvidia-dali               0.19.0
nvidia-dali-tf-plugin     0.19.0
nvtx-plugins              0.1.7
olefile                   0.45.1
opencv-python             4.2.0.34
opt-einsum                3.2.0
pandas                    0.25.3
pandocfilters             1.4.2
parso                     0.6.2
pep8                      1.7.1
pexpect                   4.7.0
pickleshare               0.7.5
Pillow                    7.1.1
pip                       21.0.1
portalocker               1.5.2
portpicker                1.3.1
prettytable               0.7.2
prometheus-client         0.7.1
prompt-toolkit            3.0.3
protobuf                  3.11.3
psutil                    5.6.5
ptyprocess                0.6.0
pyasn1                    0.4.2
pycocotools               2.0.0
pycodestyle               2.6.0
pycparser                 2.20
pycrypto                  2.6.1
pyflakes                  1.6.0
Pygments                  2.5.2
pygobject                 3.26.1
pylint                    1.8.3
pyparsing                 2.4.6
pyrsistent                0.15.7
python-dateutil           2.8.1
python-speech-features    0.6
pytz                      2019.3
PyWavelets                1.1.1
pyxdg                     0.25
PyYAML                    5.3
pyzmq                     19.0.0
qtconsole                 4.7.3
QtPy                      1.9.0
requests                  2.23.0
resampy                   0.2.2
roman                     2.0.0
rope                      0.17.0
rsa                       3.4.2
s3transfer                0.1.13
sacrebleu                 1.4.2
scikit-image              0.16.2
scikit-learn              0.22.2.post1
scipy                     1.1.0
SecretStorage             2.3.1
Send2Trash                1.5.0
sentencepiece             0.1.83
setuptools                45.2.0
six                       1.13.0
SoundFile                 0.10.3.post1
ssh-import-id             5.7
style                     1.1.0
tensorboard               1.15.0+nv
tensorboard-plugin-dlprof 20.3
tensorflow                1.15.0
tensorflow-estimator      1.15.1
tensorflow-gpu            1.15.0
tensorrt                  7.0.0.11
termcolor                 1.1.0
terminado                 0.8.3
testpath                  0.4.4
tornado                   6.0.4
tqdm                      4.43.0
traitlets                 4.3.3
typing                    3.7.4.1
uff                       0.6.5
update                    0.0.1
urllib3                   1.22
virtualenv                20.0.21
wcwidth                   0.1.8
webencodings              0.5.1
Werkzeug                  1.0.0
wheel                     0.34.2
widgetsnbextension        3.5.1
wrapt                     1.12.1
zipp                      3.1.0
