/home/kduncan/Code/ImageRefinement/boats/00/00e883f763c2c2e5ade941a978746f677860dd89.webp
/home/kduncan/Code/ImageRefinement/boats/00/00fc8c7b7ef4f0bd836a2a1c70e5049e27cf4f65.webp
/home/kduncan/Code/ImageRefinement/boats/00/00f65dbf753ce007ebaa977a413121de66bf3724.webp
/home/kduncan/Code/ImageRefinement/boats/00/00edcbc3eace35e05c0c8634cebaa4c475d11bae.webp
/home/kduncan/Code/ImageRefinement/boats/00/00f5113090aa23a2c63f4412667c1fff2709331c.webp
/home/kduncan/Code/ImageRefinement/boats/00/00f3b45577b9415ec2b5b6370eeca9382b564af7.webp
/home/kduncan/Code/ImageRefinement/boats/00/00f58403c44104be020489150e2c8c4f344b38fd.webp
/home/kduncan/Code/ImageRefinement/boats/00/00f02db1e39d2cb66360fe8b8b2090578eab9320.webp
/home/kduncan/Code/ImageRefinement/boats/00/00ee48d0cc77ae437767b9ca52092ccf2cdda5f8.webp
/home/kduncan/Code/ImageRefinement/boats/00/00fa88fa7c0cd6762073c5edbf389a5b2b671a16.webp
/home/kduncan/Code/ImageRefinement/boats/00/00edaa103473af5cfd75188507f72581a2f0001f.webp
/home/kduncan/Code/ImageRefinement/boats/00/00ef484196174ddd6e5ab96ad93a888fe085350e.webp
/home/kduncan/Code/ImageRefinement/boats/00/00e883f763c2c2e5ade941a978746f677860dd89.webp
/home/kduncan/Code/ImageRefinement/boats/00/00f82ed376ef327de9386d86a3a0e62e236336e1.webp
/home/kduncan/Code/ImageRefinement/boats/00/00f962980d55f3ee430de423a70ac973b374f6ab.webp
/home/kduncan/Code/ImageRefinement/boats/00/00f93e68f016c18096c396cf01b31ec82a4baf9d.webp
/home/kduncan/Code/ImageRefinement/boats/00/00f818797d5e60c4865565537eca5286dcaeec90.webp
/home/kduncan/Code/ImageRefinement/boats/00/00fe4caf9d4c3ebfe2c6786bf8ffaa1f149894d9.webp
/home/kduncan/Code/ImageRefinement/boats/00/00fe577a1d5d580e0c69213c71f28b2984b128bf.webp
/home/kduncan/Code/ImageRefinement/boats/00/00f07fcc076a77efad59f6ea05186cb28812da00.webp
/home/kduncan/Code/ImageRefinement/boats/00/00e6f92f3cca6de92f9865978286285b38b64172.webp
/home/kduncan/Code/ImageRefinement/boats/00/00f252f4025a13665b3a0e38eb296276a1eb4dea.webp
/home/kduncan/Code/ImageRefinement/boats/00/00f637c9cb427a673b39208bf6151312bc4dd634.webp
/home/kduncan/Code/ImageRefinement/boats/00/00f0ee45a81bf1efdf9688d05fea5c96bd8b176d.webp
/home/kduncan/Code/ImageRefinement/boats/00/00f8503f1f8c90f80ff73c55190666c375f3555f.webp
/home/kduncan/Code/ImageRefinement/boats/00/00ecddf3f321fcc7f24a118bd7394d0dc3331db3.webp
/home/kduncan/Code/ImageRefinement/boats/00/00f6cceda20943fddaf2e0a7152c182c87db88d2.webp
/home/kduncan/Code/ImageRefinement/boats/00/00f94764cf05db7e1c09f7422135f380e4fae0bf.webp
/home/kduncan/Code/ImageRefinement/boats/00/00fd591777cdfead23e5a4de45bb4942bbd42e0b.webp
/home/kduncan/Code/ImageRefinement/boats/00/00fe21e4b1890075e3de834219d0a97a49acce5e.webp
/home/kduncan/Code/ImageRefinement/boats/00/00f22cc5ec83cb3d1f6ae7f8a5114592f495b5d4.webp
/home/kduncan/Code/ImageRefinement/boats/00/00ef845a336037905d59f7be162c88b3b6405317.webp
/home/kduncan/Code/ImageRefinement/boats/00/00eada13b520da70d1e9fb9926b0839c1e63d18d.webp
/home/kduncan/Code/ImageRefinement/boats/00/00fc66a37326f571784642e6b536b6444f14d7f9.webp
/home/kduncan/Code/ImageRefinement/boats/00/00e89171318577e04a2864180952d87c9ff5b4a8.webp
/home/kduncan/Code/ImageRefinement/boats/00/00fc47f7e5a6ebe15b1c7e12c1aba69228e98568.webp
/home/kduncan/Code/ImageRefinement/boats/00/00fa1ff980efac24d5f120c20ee4d8d21ebb2323.webp
/home/kduncan/Code/ImageRefinement/boats/00/00edfc18b681d5b9838cfb43520590fc7b60d93a.webp
/home/kduncan/Code/ImageRefinement/boats/00/00f31c1154e9aea964216c764441cece58874ce2.webp
/home/kduncan/Code/ImageRefinement/boats/00/00f2e19622c98052b9b8a498220a72687e8228a3.webp
/home/kduncan/Code/ImageRefinement/boats/00/00f3a536be28110b735cb3fe8822dce0110d8202.webp
/home/kduncan/Code/ImageRefinement/boats/00/00eb1fb5f881953dac78a6d0fafabe3934814d3d.webp
/home/kduncan/Code/ImageRefinement/boats/00/00f313e81345f66ee77aaec529c61d1e2f09c39e.webp
/home/kduncan/Code/ImageRefinement/boats/00/00ed455f97a951484a32b9749f8db10077fab274.webp
/home/kduncan/Code/ImageRefinement/boats/00/00f34e97d3522044d1fc705a97a704e94c8b569b.webp
/home/kduncan/Code/ImageRefinement/boats/00/00f73a868fc0394f1ff45e91dafac923fd540605.webp
/home/kduncan/Code/ImageRefinement/boats/00/00f6700caf72b5353c40ef200cc2eff69733b43c.webp
/home/kduncan/Code/ImageRefinement/boats/00/00f66ab84fd5cb8070518af08ab7a57a02a6a472.webp
/home/kduncan/Code/ImageRefinement/boats/01/010036cb86f161e36094ac83f8abd11f84a024a8.webp
/home/kduncan/Code/ImageRefinement/boats/01/0100803256ed79e1d5e802ca3d14ef97a97f8a21.webp
/home/kduncan/Code/ImageRefinement/boats/01/01009f871a95d05514a6c067de375942fd306439.webp
/home/kduncan/Code/ImageRefinement/boats/01/01012ed379ffc422d91cf1e0504da02efb41e744.webp
/home/kduncan/Code/ImageRefinement/boats/01/0102945803d195c7afb6fb29d038d3b19f78ad0b.webp
/home/kduncan/Code/ImageRefinement/boats/01/01033fb1a5cfd1920a34877b529e2fa68ccb20a1.webp
/home/kduncan/Code/ImageRefinement/boats/01/01034927bca53a17a165e9e69ec0bb52548f0d45.webp
/home/kduncan/Code/ImageRefinement/boats/01/0104270cd8d8015035f43842942b00a0b3206e06.webp
/home/kduncan/Code/ImageRefinement/boats/01/010638122f9f43ba2638da1bbd4b60881697dd45.webp
/home/kduncan/Code/ImageRefinement/boats/01/0107397d3b151a3398febdd92ff12eeaf8d5e1ad.webp
/home/kduncan/Code/ImageRefinement/boats/01/0107924b7beb0da86e988c749e859c36bd9353d8.webp
/home/kduncan/Code/ImageRefinement/boats/01/01079ea083e7f027bb6b78ab6415ead20d9b535c.webp
/home/kduncan/Code/ImageRefinement/boats/01/01091ed188bf70aa26d9e43f717842695a2841b9.webp
/home/kduncan/Code/ImageRefinement/boats/01/01096c8fd3399437806ac06b6024d967c0add0a1.webp
/home/kduncan/Code/ImageRefinement/boats/01/010a3250449264b5c5ad78c63a5ad1988d05aa49.webp
/home/kduncan/Code/ImageRefinement/boats/01/010a55c87e7bebeb56b20c591f35f0f252937e4a.webp
/home/kduncan/Code/ImageRefinement/boats/01/010a9cd803a5893a7d671e54c2c04e66dbdf17f1.webp
/home/kduncan/Code/ImageRefinement/boats/01/010b6b98cb557a851284fd2a3750b6d896d7fa47.webp
/home/kduncan/Code/ImageRefinement/boats/01/010c6ee426b79f245219806bf8260ce498c5a413.webp
/home/kduncan/Code/ImageRefinement/boats/01/010cfb68a6ffc0ff5ee95e733efcbebbd47bcaa2.webp
/home/kduncan/Code/ImageRefinement/boats/01/010d5a41cfdda152fd04615eeb19a11c0e32b0a5.webp
/home/kduncan/Code/ImageRefinement/boats/01/010eba3dd9da199875a56ee134a293d4da5ca4b6.webp
/home/kduncan/Code/ImageRefinement/boats/01/010f0fe12691925514bcc25a8b3a83b38bbf41bd.webp
/home/kduncan/Code/ImageRefinement/boats/01/010f7fa2375feddec489b8f8b60460ba5c553ce0.webp
/home/kduncan/Code/ImageRefinement/boats/01/010f89c1087767a0023f9560cec93fad5356141c.webp
/home/kduncan/Code/ImageRefinement/boats/01/010fc1c82ce1087e54904a666eea39be739ae1a2.webp
/home/kduncan/Code/ImageRefinement/boats/01/011068e1da25fa67741017e7475fade0ecd0732a.webp
/home/kduncan/Code/ImageRefinement/boats/01/0110ec5ec5004c16fff20880ec3ea5b2376b3b36.webp
/home/kduncan/Code/ImageRefinement/boats/01/0110efe8a8a4c112cbcad06a7fcc5c3377006592.webp
/home/kduncan/Code/ImageRefinement/boats/01/011174a3f6b2fc064bda870e9626786f30dd98f1.webp
/home/kduncan/Code/ImageRefinement/boats/01/0111a0956f717db61890edb304d26175485f2f8e.webp
/home/kduncan/Code/ImageRefinement/boats/01/0111ecc9e5f262a8303bc9e7f0a4f9a876ad5132.webp
